Liz Wagner - Project 1 Data Analysis
…
Transform the sales into a unit that is album sales in millions of dollars.

sales$sales <-  as.numeric(sales$sales)/1000000

Keep only album sales from the UK, the US or the World.

Auto print your final wrangled tibble data frame.

salesdf <- sales %>% 
   filter(country == "UK"|country == "US"| country == "World")
salesdf

# A tibble: 36 × 8
   artist       title        country  sales released   re_release  label formats
   <chr>        <chr>        <fct>    <dbl> <date>     <chr>       <chr> <chr>  
 1 Taylor Swift Taylor Swift US       5.72  2006-10-24 March 18, … Big … CD, CD…
 2 Taylor Swift Fearless     World   12     2008-11-11 October 27… Big … CD, CD…
 3 Taylor Swift Fearless     US       7.18  2008-11-11 October 27… Big … CD, CD…
 4 Taylor Swift Fearless     UK       0.609 2008-11-11 October 27… Big … CD, CD…
 5 Taylor Swift Speak Now    World    5     2010-10-25 <NA>        Big … CD, CD…
 6 Taylor Swift Speak Now    US       4.69  2010-10-25 <NA>        Big … CD, CD…
 7 Taylor Swift Speak Now    UK       0.169 2010-10-25 <NA>        Big … CD, CD…
 8 Taylor Swift Red          World    6     2012-10-22 <NA>        Big … CD, CD…
 9 Taylor Swift Red          US       4.46  2012-10-22 <NA>        Big … CD, CD…
10 Taylor Swift Red          UK       0.693 2012-10-22 <NA>        Big … CD, CD…
# … with 26 more rows
…
In Part 2, we will explore the lyrics in the b_lyrics and ts_lyrics datasets.

Part 2A

Using ts_lyrics, create a new column called line with one line containing the character string for each line of Taylor Swift’s songs.

b_lyrics <- readRDS(here("data","b_lyrics.RDS"))
ts_lyrics <- readRDS(here("data","ts_lyrics.RDS"))
library(tidyverse)
library(stringr)
library(tidytext) 
ts_lyrics

# A tibble: 132 × 4
   Artist       Album        Title                      Lyrics                  
   <chr>        <chr>        <chr>                      <chr>                   
 1 Taylor Swift Taylor Swift Tim McGraw                 "He said the way my blu…
 2 Taylor Swift Taylor Swift Picture to Burn            "State the obvious, I d…
 3 Taylor Swift Taylor Swift Teardrops on my Guitar     "Drew looks at me,\nI f…
 4 Taylor Swift Taylor Swift A Place in This World      "I don't know what I wa…
 5 Taylor Swift Taylor Swift Cold As You                "You have a way of comi…
 6 Taylor Swift Taylor Swift The Outside                "I didn't know what I w…
 7 Taylor Swift Taylor Swift Tied Together With A Smile "Seems the only one who…
 8 Taylor Swift Taylor Swift Stay Beautiful             "Cory's eyes are like a…
 9 Taylor Swift Taylor Swift Should’ve Said No          "It's strange to think …
10 Taylor Swift Taylor Swift Mary’s Song                "She said\n\"I was seve…
# … with 122 more rows

b_lyrics

# A tibble: 22,616 × 6
   line                                  song_id song_…¹ artis…² artis…³ song_…⁴
   <chr>                                   <dbl> <chr>     <dbl> <chr>     <dbl>
 1 If I ain't got nothing, I got you       50396 1+1         498 Beyoncé       1
 2 If I ain't got something, I don't gi…   50396 1+1         498 Beyoncé       2
 3 'Cause I got it with you                50396 1+1         498 Beyoncé       3
 4 I don't know much about algebra, but…   50396 1+1         498 Beyoncé       4
 5 And it's me and you                     50396 1+1         498 Beyoncé       5
 6 That's all we'll have when the world…   50396 1+1         498 Beyoncé       6
 7 'Cause baby, we ain't got nothing wi…   50396 1+1         498 Beyoncé       7
 8 Darling, you got enough for the both…   50396 1+1         498 Beyoncé       8
 9 So come on, baby, make love to me       50396 1+1         498 Beyoncé       9
10 When my days look low                   50396 1+1         498 Beyoncé      10
# … with 22,606 more rows, and abbreviated variable names ¹​song_name,
#   ²​artist_id, ³​artist_name, ⁴​song_line
…
ts_lyrics_df %>% unnest_tokens(line, text, token = stringr::str_split, pattern = “”) %>% mutate(song_line = row_number()) %>% mutate(goodbye_ind = ifelse(grepl(pattern = “goodbye”, x = line, ignore.case = TRUE),1,0)) %>% filter(goodbye_ind == 1)

ts_lyrics_df %>% unnest_tokens(line, text, token = stringr::str_split, pattern = “”) %>% mutate(song_line = row_number()) %>% mutate(goodbye_ind = ifelse(grepl(pattern = “goodbye”, x = line, ignore.case = TRUE),1,0)) %>% filter(goodbye_ind == 1) %>% summarise(sum_goodbye = sum(goodbye_ind))

Part 2B

Repeat the same analysis for b_lyrics as described in Part 2A.

b_lyrics_df = b_lyrics %>%
    mutate(hello_ind = ifelse(grepl(pattern = "hello", x = line, ignore.case = TRUE),1,0)) %>%
    filter(hello_ind == 1) 
    
b_lyrics_df

# A tibble: 91 × 7
   line                          song_id song_…¹ artis…² artis…³ song_…⁴ hello…⁵
   <chr>                           <dbl> <chr>     <dbl> <chr>     <dbl>   <dbl>
 1 Hello world, well I just bou… 2220711 "Dream…     498 Beyoncé       5       1
 2 Hello Stevie, How you feeling 1981227 "Finge…     498 Beyoncé       6       1
 3 Fellow great Americans, hello 2715227 "FREED…     498 Beyoncé      52       1
 4 You had me at hello (Hello)     80249 "Hello"     498 Beyoncé      15       1
 5 Hello (Hello)                   80249 "Hello"     498 Beyoncé      16       1
 6 Hello (Hello)                   80249 "Hello"     498 Beyoncé      17       1
 7 You had me at hello (Hello)     80249 "Hello"     498 Beyoncé      18       1
 8 Hello (Hello)                   80249 "Hello"     498 Beyoncé      19       1
 9 Hello (Hello)                   80249 "Hello"     498 Beyoncé      20       1
10 'Cause you had me at hello (…   80249 "Hello"     498 Beyoncé      24       1
# … with 81 more rows, and abbreviated variable names ¹​song_name, ²​artist_id,
#   ³​artist_name, ⁴​song_line, ⁵​hello_ind
…
b_lyrics_df2 = tibble(text = b_lyrics$line) 

b_lyrics_df2n <- b_lyrics_df2 %>% 
 unnest_tokens(output = word, 
                input = text, 
                token="words") %>% 
    anti_join(stop_words)%>%
    count(word, sort = TRUE) 

Joining, by = "word"

b_lyrics_df2n

# A tibble: 5,937 × 2
   word      n
   <chr> <int>
 1 love   1362
 2 baby   1024
 3 girl    592
 4 wanna   564
 5 hey     499
 6 boy     494
 7 yeah    491
 8 feel    488
 9 time    452
10 uh      408
# … with 5,927 more rows

b_lyrics_df2n <- b_lyrics_df2n %>%
inner_join(get_sentiments("bing"))%>%                                 
  slice(1:25)

Joining, by = "word"

b_lyrics_df2n

# A tibble: 25 × 3
   word          n sentiment
   <chr>     <int> <chr>    
 1 love       1362 positive 
 2 crazy       308 negative 
 3 top         241 positive 
 4 bad         132 negative 
 5 beautiful   131 positive 
 6 whoa        121 positive 
 7 damn        106 negative 
 8 hurt         90 negative 
 9 hard         87 negative 
10 ready        85 positive 
# … with 15 more rows
…
ts_lyrics_df2 = tibble(text = ts_lyrics1$line) 

ts_lyrics_df2 <- ts_lyrics_df2 %>% 
 unnest_tokens(output = word, 
                input = text, 
                token="words") %>% 
    anti_join(stop_words)%>%
    count(word, sort = TRUE) 

Joining, by = "word"

ts_lyrics_df2

# A tibble: 2,579 × 2
   word      n
   <chr> <int>
 1 love    248
 2 time    225
 3 wanna   158
 4 baby    153
 5 ooh     127
 6 yeah    105
 7 stay    100
 8 gonna    98
 9 night    96
10 bad      80
# … with 2,569 more rows

ts_lyrics_df2 <- ts_lyrics_df2 %>%
inner_join(get_sentiments("bing"))%>%                                 
  slice(1:25)

Joining, by = "word"

ts_lyrics_df2

# A tibble: 25 × 3
   word          n sentiment
   <chr>     <int> <chr>    
 1 love        248 positive 
 2 bad          80 negative 
 3 shake        73 negative 
 4 break        59 negative 
 5 mad          48 negative 
 6 beautiful    46 positive 
 7 smile        45 positive 
 8 hate         44 negative 
 9 fall         43 negative 
10 whoa         36 positive 
# … with 15 more rows
…
Auto print the wrangled tibble data frame.

ts_lyrics <- readRDS(here("data","ts_lyrics.RDS"))
library(textdata)

ts_lyrics2 = separate_rows(ts_lyrics, Lyrics, sep = '\n') %>%
rename(line = Lyrics) 

ts_lyrics_df3 = tibble(Album = ts_lyrics2$Album, line= ts_lyrics2$line) 
ts_lyrics_df3 <- ts_lyrics_df3 %>% 
  group_by(Album)
ts_lyrics_df3

# A tibble: 7,168 × 2
# Groups:   Album [8]
   Album        line                                                       
   <chr>        <chr>                                                      
 1 Taylor Swift "He said the way my blue eyes shinx"                       
 2 Taylor Swift "Put those Georgia stars to shame that night"              
 3 Taylor Swift "I said: \"That's a lie.\""                                
 4 Taylor Swift "Just a boy in a Chevy truck"                              
 5 Taylor Swift "That had a tendency of gettin' stuck"                     
 6 Taylor Swift "On back roads at night"                                   
 7 Taylor Swift "And I was right there beside him all summer long"         
 8 Taylor Swift "And then the time we woke up to find that summer had gone"
 9 Taylor Swift "But when you think \"Tim McGraw\""                        
10 Taylor Swift "I hope you think my favorite song"                        
# … with 7,158 more rows

ts_lyrics_df3 <- ts_lyrics_df3 %>% 
 unnest_tokens(output = word, 
                input = line, 
                token="words") %>% 
    anti_join(stop_words)%>%
    count(word, sort = TRUE) 

Joining, by = "word"

ts_lyrics_df3

# A tibble: 4,968 × 3
# Groups:   Album [8]
   Album word         n
   <chr> <chr>    <int>
 1 1989  love        82
 2 1989  shake       70
 3 Red   time        66
 4 Lover ooh         61
 5 Red   uh          50
 6 Red   red         46
 7 Lover love        44
 8 Lover wanna       42
 9 1989  baby        41
10 Lover daylight    40
# … with 4,958 more rows
…
salesdf <- salesdf %>%
  rename(Album = title)

salesdf

# A tibble: 36 × 8
   artist       Album        country  sales released   re_release  label formats
   <chr>        <chr>        <fct>    <dbl> <date>     <chr>       <chr> <chr>  
 1 Taylor Swift Taylor Swift US       5.72  2006-10-24 March 18, … Big … CD, CD…
 2 Taylor Swift Fearless     World   12     2008-11-11 October 27… Big … CD, CD…
 3 Taylor Swift Fearless     US       7.18  2008-11-11 October 27… Big … CD, CD…
 4 Taylor Swift Fearless     UK       0.609 2008-11-11 October 27… Big … CD, CD…
 5 Taylor Swift Speak Now    World    5     2010-10-25 <NA>        Big … CD, CD…
 6 Taylor Swift Speak Now    US       4.69  2010-10-25 <NA>        Big … CD, CD…
 7 Taylor Swift Speak Now    UK       0.169 2010-10-25 <NA>        Big … CD, CD…
 8 Taylor Swift Red          World    6     2012-10-22 <NA>        Big … CD, CD…
 9 Taylor Swift Red          US       4.46  2012-10-22 <NA>        Big … CD, CD…
10 Taylor Swift Red          UK       0.693 2012-10-22 <NA>        Big … CD, CD…
# … with 26 more rows
…
